// Jest Snapshot v1, https://goo.gl/fbAQLP

exports[`DastProfileSelectorEmptyState renders properly 1`] = `
<div>
  <div
    class="gl-bg-gray-10 gl-flex gl-flex-col gl-items-center gl-mb-5 gl-p-6 gl-rounded-small gl-text-center"
  >
    <h5
      class="gl-h5 gl-mb-2 gl-mt-0 gl-text-subtle"
    >
      heading
    </h5>
    <span
      class="gl-text-subtle"
    >
      content
    </span>
  </div>
</div>
`;
